# compile vhdl design source files
vhdl xil_defaultlib  \
"../../../../base_system.ip_user_files/bd/design_1/ip/design_1_microblaze_0_1/sim/design_1_microblaze_0_1.vhd" \
"../../../../base_system.ip_user_files/bd/design_1/ip/design_1_dlmb_v10_1/sim/design_1_dlmb_v10_1.vhd" \
"../../../../base_system.ip_user_files/bd/design_1/ip/design_1_ilmb_v10_1/sim/design_1_ilmb_v10_1.vhd" \
"../../../../base_system.ip_user_files/bd/design_1/ip/design_1_dlmb_bram_if_cntlr_1/sim/design_1_dlmb_bram_if_cntlr_1.vhd" \
"../../../../base_system.ip_user_files/bd/design_1/ip/design_1_ilmb_bram_if_cntlr_1/sim/design_1_ilmb_bram_if_cntlr_1.vhd" \
"../../../../base_system.ip_user_files/bd/design_1/ip/design_1_mdm_1_1/sim/design_1_mdm_1_1.vhd" \
"../../../../base_system.ip_user_files/bd/design_1/ip/design_1_rst_clk_wiz_1_100M_1/sim/design_1_rst_clk_wiz_1_100M_1.vhd" \
"../../../../base_system.ip_user_files/bd/design_1/ip/design_1_axi_gpio_0_0/sim/design_1_axi_gpio_0_0.vhd" \
"../../../../base_system.ip_user_files/bd/design_1/ip/design_1_axi_gpio_1_0/sim/design_1_axi_gpio_1_0.vhd" \

# Do not sort compile order
nosort
