# compile verilog/system verilog design source files
verilog xil_defaultlib  --include "../../../../base_system.srcs/sources_1/bd/design_1/ipshared/c923" --include "../../../../base_system.srcs/sources_1/bd/design_1/ipshared/ec67/hdl" \
"../../../../base_system.ip_user_files/bd/design_1/ip/design_1_lmb_bram_1/sim/design_1_lmb_bram_1.v" \
"../../../../base_system.ip_user_files/bd/design_1/ip/design_1_clk_wiz_1_1/design_1_clk_wiz_1_1_clk_wiz.v" \
"../../../../base_system.ip_user_files/bd/design_1/ip/design_1_clk_wiz_1_1/design_1_clk_wiz_1_1.v" \
"../../../../base_system.ip_user_files/bd/design_1/ip/design_1_xbar_0/sim/design_1_xbar_0.v" \
"../../../../base_system.ip_user_files/bd/design_1/sim/design_1.v" \
"../../../../base_system.srcs/sources_1/bd/design_1/hdl/design_1_wrapper.v" \

# compile glbl module
verilog xil_defaultlib "glbl.v"

# Do not sort compile order
nosort
